{
	"contextElements" : [
		{
			"type": "Room",
			"isPattern": "false",
			"id": "Thunbergs 2",
			"attributes": [
				{
					"name" : "description",
					"type": "string",
					"value": "Peppers from Austria"
				},
				{
					"name": "cropType",
					"type": "int",
					"value": 2
				},
				{
					"name": "timeStamps",
					"type": "string",
					"value": ["Today"]
				},
				{

					"name": "dimension",
					"type": "dimension",
					"value": [130, 120]
				},
				{
					"name": "electricalSystems",
					"type": "electricalSystem",
					"value": [
						{
							"name": "Light",
							"totalEnergy": 3000
						},
						{
							"name": "Ventilation",
							"totalEnergy": 200
						},
						{
							"name": "Irrigation",
							"totalEnergy": 800
						}
					],
					"metadatas": [
						{
							"name": "unit",
							"type": "string",
							"value": "kWh"
						}
					]

				},
				{
					"name": "EC Green 3",
					"type": "smartDevice",
					"value": [
						{
							"sensors": [
                                {
                                    "sensor": {
                                        "type" : "Daylength",
                                        "name" : "Daylength sensor sd3",
                                        "value": [12],
                                        "metadatas": [
                                        	{
                                        		"name": "unit",
                                        		"type": "string",
                                        		"value": "h"
                                        	}
                                        ]
                                    } 
                                },
                                {
                                    "sensor": {
                                        "type": "Temperature",
                                        "name": "Temperature sensor sd3",
                                        "value": [30],
                                        "metadatas": [
                                        	{
                                        		"name": "unit",
                                        		"type": "string",
                                        		"value": "ºC"
                                        	}
                                        ]
                                    }
                                },
                                {
                                    "sensor": {
                                        "type": "PAR",
                                        "name": "PAR sensor sd3",    
                                        "value": [10],
                                        "metadatas": [
                                        	{
                                        		"name": "unit",
                                        		"type": "string",
                                        		"value": "mol/m2*day"
                                        	}
                                        ]
                                    }
                                } 
                            ]
							
						},
						{
							"lightDevices": [
	                                {
	                                    "lightDevice": {
	                                        "name": "Light 3.1",
	                                        "status": "ON",
	                                        "value": [70],
	                                        "metadatas": [
												{
													"name": "position",
													"type": "xy",
													"value": [15, 20]
												},
												{
													"name": "unit",
													"type": "string",
													"value": "%"
												}
											]
	                                    }
	                                },
	                                {
	                                    "lightDevice": {
	                                        "name": "Light 3.2",
	                                        "status": "ON",
	                                        "value": [70],
	                                        "metadatas": [
												{
													"name": "position",
													"type": "xy",
													"value": [15, 100]
												},
												{
													"name": "unit",
													"type": "string",
													"value": "%"
												}
											]
	                                    }
	                                },
	                                {
	                                    "lightDevice": {
	                                        "name": "Light 3.3",
	                                        "status": "ON",
	                                        "value": [70],
	                                        "metadatas": [
												{
													"name": "position",
													"type": "xy",
													"value": [45, 20]
												},
												{
													"name": "unit",
													"type": "string",
													"value": "%"
												}
											]
	                                    }
	                                },
	                                {
	                                    "lightDevice": {
	                                        "name": "Light 3.4",
	                                        "status": "ON",
	                                        "value": [70],
	                                        "metadatas": [
												{
													"name": "position",
													"type": "xy",
													"value": [45, 100]
												},
												{
													"name": "unit",
													"type": "string",
													"value": "%"
												}
											]
	                                    }
	                                }

	  
	                            ]
                        }

					],
					"metadatas": [
						{
							"name": "position",
							"type": "x",
							"value": 25
						},
						{
							"name": "position",
							"type": "y",
							"value": 60
						}

					]

				},
				{
					"name": "EC Green 4",
					"type": "smartDevice",
					"value": [
						{
							"sensors": [
                                {
                                    "sensor": {
                                        "type" : "Daylength",
                                        "name" : "Daylength sensor sd4",
                                        "value": [10],
                                        "metadatas": [
                                        	{
                                        		"name": "unit",
                                        		"type": "string",
                                        		"value": "h"
                                        	}
                                        ]
                                    } 
                                },
                                {
                                    "sensor": {
                                        "type": "Temperature",
                                        "name": "Temperature sensor sd4",
                                        "value": [20],
                                        "metadatas": [
                                        	{
                                        		"name": "unit",
                                        		"type": "string",
                                        		"value": "ºC"
                                        	}
                                        ]
                                    }
                                },
                                {
                                    "sensor": {
                                        "type": "PAR",
                                        "name": "PAR sensor sd4",    
                                        "value": [14],
                                        "metadatas": [
                                        	{
                                        		"name": "unit",
                                        		"type": "string",
                                        		"value": "mol/m2*day"
                                        	}
                                        ]
                                    }
                                } 
                            ]
							
						},
						{
							"lightDevices": [
								{
									"lightDevice": {
	                                        "name": "Light 4.1",
	                                        "status": "ON",
	                                        "value": [70],
	                                        "metadatas": [
												{
													"name": "position",
													"type": "xy",
													"value": [75, 20]
												},
												{
													"name": "unit",
													"type": "string",
													"value": "%"
												}
											]
	                                    }
								},
								{
									"lightDevice": {
	                                        "name": "Light 4.2",
	                                        "status": "ON",
	                                        "value": [70],
	                                        "metadatas": [
												{
													"name": "position",
													"type": "xy",
													"value": [75, 100]
												},
												{
													"name": "unit",
													"type": "string",
													"value": "%"
												}
											]
	                                    }
								},
								{
									"lightDevice": {
	                                        "name": "Light 4.3",
	                                        "status": "ON",
	                                        "value": [70],
	                                        "metadatas": [
												{
													"name": "position",
													"type": "xy",
													"value": [105, 20]
												},
												{
													"name": "unit",
													"type": "string",
													"value": "%"
												}
											]
	                                    }
								},
								{
									"lightDevice": {
	                                        "name": "Light 4.4",
	                                        "status": "ON",
	                                        "value": [70],
	                                        "metadatas": [
												{
													"name": "position",
													"type": "xy",
													"value": [105, 100]
												},
												{
													"name": "unit",
													"type": "string",
													"value": "%"
												}
											]
	                                    }
								}


							]
						}			
					],
					"metadatas": [
						{
							"name": "position",
							"type": "x",
							"value": 95
						},
						{
							"name": "position",
							"type": "y",
							"value": 60
						}

					]

				}

			]
		}
	],
	"updateAction": "APPEND"

}