{
    "contextResponses": [
        {
            "room": {
                "name": "Thunbergs 1",
                "dimX": "200",
                "dimY": "100",
                "cropType": 1,
                "description": "Tomatoes from Spain",
                "smartDevices": [
                    {
                        "smartDevice": {
                            "name": "EC Green 1",
                            "posX": "20",
                            "posY": "20",
                            "sensors": [
                                {
                                    "sensor": {
                                        "type" : "Daylength",
                                        "name" : "Daylength sensor sd1",
                                        "value": [5, 10, 10, 9, 10, 11, 10],
                                        "unit": "h"
                                    } 
                                },
                                {
                                    "sensor": {
                                        "type": "Temperature",
                                        "name": "Temperature sensor sd1",
                                        "value": [35, 40, 38, 32, 33, 34, 30],
                                        "unit": "ºC"
                                    }
                                },
                                {
                                    "sensor": {
                                        "type": "PAR",
                                        "name": "PAR sensor sd1",    
                                        "value": [5, 6, 7, 6, 7, 7, 8],
                                        "unit": "mol/m2*day"
                                    }
                                } 
                            ],
                            "lightDevices": [
                                {
                                    "lightDevice": {
                                        "name": "Light 1.1",
                                        "status": "OFF",
                                        "value": [70, 70, 80, 90, 80, 80, 90],
                                        "posX": "30",
                                        "posY": "40",
                                        "unit": "%"
                                    }
                                },
                                {
                                    "lightDevice": {
                                        "name": "Light 1.2",
                                        "status": "OFF",
                                        "value": [0, 0, 0, 0, 0, 0, 0],
                                        "posX": "60",
                                        "posY": "40",
                                        "unit": "%"
                                    }
                                },
                                {
                                    "lightDevice": {
                                        "name": "Light 1.3",
                                        "status": "OFF",
                                        "value": [0, 0, 0, 0, 0, 0, 0],
                                        "posX": "120",
                                        "posY": "40",
                                        "unit": "%"
                                    }
                                }
                            ]
                        }
                    },
                    {
                        "smartDevice": {
                            "name": "EC Green 2",
                            "posX": "50",
                            "posY": "50",
                            "sensors": [
                                {
                                    "sensor": {
                                        "type" : "Daylength",
                                        "name" : "Daylength sensor sd2",
                                        "value": [10, 12, 12, 13, 11, 13, 14],
                                        "unit": "h"
                                    }
                                },
                                {
                                    "sensor": {
                                        "type": "Temperature",
                                        "name": "Temperature sensor sd2",
                                        "value": [20, 25, 28, 30, 33, 34, 33],
                                        "unit": "ºC"
                                    }
                                },
                                {
                                    "sensor": {
                                        "type": "PAR",
                                        "name": "PAR sensor sd2",    
                                        "value": [14, 15, 16, 15, 15, 18, 16],
                                        "unit": "mol/m2*day"
                                    }
                                } 
                            ]
                        }
                    }
                ],
                "timeStamps": ["Monday", "Tuesday", "Wednesday", "Thursday", "Friday", "Saturday", "Sunday"],
                "electricalSystems": [ 
                    {
                       "electricalSystem": {
                            "name" : "Light",
                            "totalEnergy": 300,
                            "unit": "kWh"
                       }
                    },
                    {
                       "electricalSystem": {
                            "name" : "Ventilation",
                            "totalEnergy": 275,
                            "unit": "kWh"
                       }
                    },
                    {
                       "electricalSystem": {
                            "name" : "Irrigation",
                            "totalEnergy": 800,
                            "unit": "kWh"
                       }      
                    }
                ]
            }
        },
        {
            "room": {
                "name": "Thunbergs 2",
                "dimX": "100",
                "dimY": "200",
                "cropType": 2,
                "description": "Peepers from Austria",
                "smartDevices": [
                    {
                        "smartDevice": {
                            "name": "EC Green 3",
                            "posX": "25",
                            "posY": "100",
                            "sensors": [
                                {
                                    "sensor": {
                                        "type" : "Daylength",
                                        "name" : "Daylength sensor sd3",
                                        "value": [12, 12, 13, 12, 13, 13, 13],
                                        "unit": "h"
                                    } 
                                },
                                {
                                    "sensor": {
                                        "type": "Temperature",
                                        "name": "Temperature sensor sd3",
                                        "value": [30, 31, 30, 31, 30, 30, 29],
                                        "unit": "ºC"
                                    }
                                },
                                {
                                    "sensor": {
                                        "type": "PAR",
                                        "name": "PAR sensor sd3",    
                                        "value": [10, 11, 14, 15, 12, 14, 15],
                                        "unit": "mol/m2*day"
                                    }
                                } 
                            ],
                            "lightDevices": [
                                {
                                    "lightDevice": {
                                        "name": "Light 3.1",
                                        "status": "ON",
                                        "value": [70, 70, 70, 95, 70, 75, 80],
                                        "posX": "15",
                                        "posY": "50",
                                        "unit": "%"
                                    }
                                },
                                {
                                    "lightDevice": {
                                        "name": "Light 3.2",
                                        "status": "ON",
                                        "value": [70, 70, 70, 95, 70, 80, 80],
                                        "posX": "15",
                                        "posY": "150",
                                        "unit": "%"
                                    }
                                },
                                {
                                    "lightDevice": {
                                        "name": "Light 3.3",
                                        "status": "ON",
                                        "value": [60, 60, 60, 85, 60, 50, 40],
                                        "posX": "45",
                                        "posY": "50",
                                        "unit": "%"
                                    }
                                },
                                {
                                    "lightDevice": {
                                        "name": "Light 3.4",
                                        "status": "ON",
                                        "value": [65, 65, 80, 95, 60, 60, 70],
                                        "posX": "45",
                                        "posY": "150",
                                        "unit": "%"
                                    }
                                }
                            ]
                        }
                    },
                    {
                        "smartDevice": {
                            "name": "EC Green 4",
                            "posX": "75",
                            "posY": "100",
                            "sensors": [
                                {
                                    "sensor": {
                                        "type" : "Daylength",
                                        "name" : "Daylength sensor sd2",
                                        "value": [10, 12, 12, 13, 11, 10, 12],
                                        "unit": "h"
                                    }
                                },
                                {
                                    "sensor": {
                                        "type": "Temperature",
                                        "name": "Temperature sensor sd2",
                                        "value": [20, 25, 28, 30, 33, 31, 29],
                                        "unit": "ºC"
                                    }
                                },
                                {
                                    "sensor": {
                                        "type": "PAR",
                                        "name": "PAR sensor sd2",    
                                        "value": [14, 15, 16, 15, 15, 16, 16],
                                        "unit": "mol/m2*day"
                                    }
                                } 
                            ],
                             "lightDevices": [
                                {
                                    "lightDevice": {
                                        "name": "Light 4.1",
                                        "status": "ON",
                                        "value": [70, 70, 70, 95, 70, 80, 85],
                                        "posX": "55",
                                        "posY": "50",
                                        "unit": "%"
                                    }
                                },
                                {
                                    "lightDevice": {
                                        "name": "Light 4.2",
                                        "status": "ON",
                                        "value": [70, 70, 70, 95, 70, 50, 50],
                                        "posX": "55",
                                        "posY": "150",
                                        "unit": "%"
                                    }
                                },
                                {
                                    "lightDevice": {
                                        "name": "Light 4.3",
                                        "status": "ON",
                                        "value": [60, 60, 60, 85, 60, 80, 75],
                                        "posX": "95",
                                        "posY": "50",
                                        "unit": "%"
                                    }
                                },
                                {
                                    "lightDevice": {
                                        "name": "Light 4.4",
                                        "status": "ON",
                                        "value": [65, 65, 80, 95, 60, 70, 75],
                                        "posX": "95",
                                        "posY": "150",
                                        "unit": "%"
                                    }
                                }
                            ]
                        }
                    }
                ],
                "timeStamps": ["Monday", "Tuesday", "Wednesday", "Thursday", "Friday", "Saturday", "Sunday"],
                "electricalSystems": [ 
                    {
                       "electricalSystem": {
                            "name" : "Light",
                            "totalEnergy": 3000,
                            "unit": "kWh"
                       }
                    },
                    {
                       "electricalSystem": {
                            "name" : "Ventilation",
                            "totalEnergy": 200,
                            "unit": "kWh"
                       }
                    },
                    {
                       "electricalSystem": {
                            "name" : "Irrigation",
                            "totalEnergy": 800,
                            "unit": "kWh"
                       }      
                    }
                ]
            }
        }
    ]
}